[
    {
        "id": "1",
        "name": "Test1",
        "status": "development",
        "created_at": "Mon Nov 28 2022 10:10:47 GMT+0300 (East Africa Time)",
        "service": [
            {
                "id": "1",
                "name": "SMS"
            },
            {
                "id": "2",
                "name": "USSD"
            }
        ],
        "clientId":  "KLuTxv09ee6DXF1K",
        "secret": "k1FxD6ee9OvxTuLK",
        "apikey": "3SNtjZCEjTDkKGPESzAcAAk8MMeTjWy1"
    },
    {
        "id": "1",
        "name": "Test1",
        "status": "production",
        "created_at": "Mon Nov 28 2022 10:10:47 GMT+0300 (East Africa Time)",
        "service": [
            {
                "id": "1",
                "name": "SMS"
            },
            {
                "id": "2",
                "name": "USSD"
            }
        ],
        "clientId":  "KLuTxv09ee6DXF1K",
        "secret": "k1FxD6ee9OvxTuLK",
        "apikey": "3SNtjZCEjTDkKGPESzAcAAk8MMeTjWy1"
    },
    {
        "id": "1",
        "name": "Test1",
        "status": "development",
        "created_at": "Mon Nov 28 2022 10:10:47 GMT+0300 (East Africa Time)",
        "service": [
            {
                "id": "1",
                "name": "SMS"
            },
            {
                "id": "2",
                "name": "USSD"
            }
        ],
        "clientId":  "KLuTxv09ee6DXF1K",
        "secret": "k1FxD6ee9OvxTuLK",
        "apikey": "3SNtjZCEjTDkKGPESzAcAAk8MMeTjWy1"
    },
    {
        "id": "1",
        "name": "Test1",
        "status": "production",
        "created_at": "Mon Nov 28 2022 10:10:47 GMT+0300 (East Africa Time)",
        "service": [
            {
                "id": "1",
                "name": "SMS"
            },
            {
                "id": "2",
                "name": "USSD"
            }
        ],
        "clientId":  "KLuTxv09ee6DXF1K",
        "secret": "k1FxD6ee9OvxTuLK",
        "apikey": "3SNtjZCEjTDkKGPESzAcAAk8MMeTjWy1"
    },
    {
        "id": "1",
        "name": "Test1",
        "status": "development",
        "created_at": "Mon Nov 28 2022 10:10:47 GMT+0300 (East Africa Time)",
        "service": [
            {
                "id": "1",
                "name": "SMS"
            },
            {
                "id": "2",
                "name": "USSD"
            }
        ],
        "clientId":  "KLuTxv09ee6DXF1K",
        "secret": "k1FxD6ee9OvxTuLK",
        "apikey": "3SNtjZCEjTDkKGPESzAcAAk8MMeTjWy1"
    },
    {
        "id": "1",
        "name": "Test1",
        "status": "production",
        "created_at": "Mon Nov 28 2022 10:10:47 GMT+0300 (East Africa Time)",
        "service": [
            {
                "id": "1",
                "name": "SMS"
            },
            {
                "id": "2",
                "name": "USSD"
            }
        ],
        "clientId":  "KLuTxv09ee6DXF1K",
        "secret": "k1FxD6ee9OvxTuLK",
        "apikey": "3SNtjZCEjTDkKGPESzAcAAk8MMeTjWy1"
    },
    {
        "id": "1",
        "name": "Test1",
        "status": "development",
        "created_at": "Mon Nov 28 2022 10:10:47 GMT+0300 (East Africa Time)",
        "service": [
            {
                "id": "1",
                "name": "SMS"
            },
            {
                "id": "2",
                "name": "USSD"
            }
        ],
        "clientId":  "KLuTxv09ee6DXF1K",
        "secret": "k1FxD6ee9OvxTuLK",
        "apikey": "3SNtjZCEjTDkKGPESzAcAAk8MMeTjWy1"
    },
    {
        "id": "1",
        "name": "Test1",
        "status": "production",
        "created_at": "Mon Nov 28 2022 10:10:47 GMT+0300 (East Africa Time)",
        "service": [
            {
                "id": "1",
                "name": "SMS"
            },
            {
                "id": "2",
                "name": "USSD"
            }
        ],
        "clientId":  "KLuTxv09ee6DXF1K",
        "secret": "k1FxD6ee9OvxTuLK",
        "apikey": "3SNtjZCEjTDkKGPESzAcAAk8MMeTjWy1"
    },
    {
        "id": "1",
        "name": "Test1",
        "status": "development",
        "created_at": "Mon Nov 28 2022 10:10:47 GMT+0300 (East Africa Time)",
        "service": [
            {
                "id": "1",
                "name": "SMS"
            },
            {
                "id": "2",
                "name": "USSD"
            }
        ],
        "clientId":  "KLuTxv09ee6DXF1K",
        "secret": "k1FxD6ee9OvxTuLK",
        "apikey": "3SNtjZCEjTDkKGPESzAcAAk8MMeTjWy1"
    }
]
