[
    {
        "id": "createmessage",
        "title": "4894",
        "time": "10:43",
        "description": " Lorem ipsum dolor sit amet consectetur adipisicing elit. Impedit, ratione nobis mollitia quaerat esse quas tenetur temporibus nesciunt minus voluptates magnam necessitatibus vero placeat sunt libero aperiam dolor tempore ipsum"
    },
    {
        "id": "createmessage",
        "title": "4894",
        "time": "10:43",
        "description": " Lorem ipsum dolor sit amet consectetur adipisicing elit. Impedit, ratione nobis mollitia quaerat esse quas tenetur temporibus nesciunt minus voluptates magnam necessitatibus vero placeat sunt libero aperiam dolor tempore ipsum"
    },
    {
        "id": "createmessage",
        "title": "4894",
        "time": "10:43",
        "description": " Lorem ipsum dolor sit amet consectetur adipisicing elit. Impedit, ratione nobis mollitia quaerat esse quas tenetur temporibus nesciunt minus voluptates magnam necessitatibus vero placeat sunt libero aperiam dolor tempore ipsum"
    },
    {
        "id": "createmessage",
        "title": "4894",
        "time": "10:43",
        "description": " Lorem ipsum dolor sit amet consectetur adipisicing elit. Impedit, ratione nobis mollitia quaerat esse quas tenetur temporibus nesciunt minus voluptates magnam necessitatibus vero placeat sunt libero aperiam dolor tempore ipsum"
    }
]